<?xml version="1.0" encoding="UTF-8"?>
<svg
  xmlns="http://www.w3.org/2000/svg"
  viewBox="0 0 16 16"
  height="16"
  width="16"
  version="1.1"
  baseProfile="tiny"
>
  <circle fill="#8d20ae" cx="8" cy="8" r="8" />
  <polygon fill="white" points="6,4 6,12 12,8" />
</svg>
